<svg xmlns="http://www.w3.org/2000/svg" width="17" height="17" viewBox="0 0 17 17">
    <g fill="currentColor">
        <path d="M14.025 3.65H12.4v-.325a.325.325 0 0 0-.65 0v.325h-6.5v-.325a.325.325 0 0 0-.65 0v.325H2.975A.976.976 0 0 0 2 4.625v9.1c0 .538.437.975.975.975h11.05a.976.976 0 0 0 .975-.975v-9.1a.976.976 0 0 0-.975-.975zm-11.05.65H4.6v.975a.325.325 0 0 0 .65 0V4.3h6.5v.975a.325.325 0 0 0 .65 0V4.3h1.625c.18 0 .325.146.325.325V6.25H2.65V4.625c0-.18.146-.325.325-.325zm11.05 9.75H2.975a.325.325 0 0 1-.325-.325V6.9h11.7v6.825c0 .18-.146.325-.325.325z"/>
        <path d="M6.875 8.85h-.65a.325.325 0 0 1 0-.65h.65a.325.325 0 0 1 0 .65zM8.825 8.85h-.65a.325.325 0 0 1 0-.65h.65a.325.325 0 0 1 0 .65zM10.775 8.85h-.65a.325.325 0 0 1 0-.65h.65a.325.325 0 0 1 0 .65zM12.725 8.85h-.65a.325.325 0 0 1 0-.65h.65a.325.325 0 0 1 0 .65zM4.925 10.15h-.65a.325.325 0 0 1 0-.65h.65a.325.325 0 0 1 0 .65zM6.875 10.15h-.65a.325.325 0 0 1 0-.65h.65a.325.325 0 0 1 0 .65zM8.825 10.15h-.65a.325.325 0 0 1 0-.65h.65a.325.325 0 0 1 0 .65zM10.775 10.15h-.65a.325.325 0 0 1 0-.65h.65a.325.325 0 0 1 0 .65zM12.725 10.15h-.65a.325.325 0 0 1 0-.65h.65a.325.325 0 0 1 0 .65zM4.925 11.45h-.65a.325.325 0 0 1 0-.65h.65a.325.325 0 0 1 0 .65zM6.875 11.45h-.65a.325.325 0 0 1 0-.65h.65a.325.325 0 0 1 0 .65zM8.825 11.45h-.65a.325.325 0 0 1 0-.65h.65a.325.325 0 0 1 0 .65zM10.775 11.45h-.65a.325.325 0 0 1 0-.65h.65a.325.325 0 0 1 0 .65zM12.725 11.45h-.65a.325.325 0 0 1 0-.65h.65a.325.325 0 0 1 0 .65zM4.925 12.75h-.65a.325.325 0 0 1 0-.65h.65a.325.325 0 0 1 0 .65zM6.875 12.75h-.65a.325.325 0 0 1 0-.65h.65a.325.325 0 0 1 0 .65zM8.825 12.75h-.65a.325.325 0 0 1 0-.65h.65a.325.325 0 0 1 0 .65zM10.775 12.75h-.65a.325.325 0 0 1 0-.65h.65a.325.325 0 0 1 0 .65zM12.725 12.75h-.65a.325.325 0 0 1 0-.65h.65a.325.325 0 0 1 0 .65z"/>
    </g>
</svg>
