<?xml version="1.0" encoding="UTF-8"?>
<svg width="48px" height="13px" viewBox="0 0 48 13" version="1.1" xmlns="http://www.w3.org/2000/svg" xmlns:xlink="http://www.w3.org/1999/xlink">
    <!-- Generator: Sketch 50.2 (55047) - http://www.bohemiancoding.com/sketch -->
    <title>coming-soon</title>
    <desc>Created with Sketch.</desc>
    <defs></defs>
    <g id="1.-Home" stroke="none" stroke-width="1" fill="none" fill-rule="evenodd">
        <g id="coming-soon" transform="translate(0.000000, -17.000000)">
            <g id="Group-3" stroke-width="1" fill-rule="evenodd" transform="translate(0.000000, 17.000000)" stroke="#7b7b7b">
                <path d="M6,11.0383886 C8.76142375,11.0383886 11,8.79981231 11,6.03838856 C11,3.27696481 8.76142375,1.03838856 6,1.03838856 C3.23857625,1.03838856 1,3.27696481 1,6.03838856 C1,8.79981231 3.23857625,11.0383886 6,11.0383886 Z M24,11.0383886 C26.7614237,11.0383886 29,8.79981231 29,6.03838856 C29,3.27696481 26.7614237,1.03838856 24,1.03838856 C21.2385763,1.03838856 19,3.27696481 19,6.03838856 C19,8.79981231 21.2385763,11.0383886 24,11.0383886 Z M42,11.0383886 C44.7614237,11.0383886 47,8.79981231 47,6.03838856 C47,3.27696481 44.7614237,1.03838856 42,1.03838856 C39.2385763,1.03838856 37,3.27696481 37,6.03838856 C37,8.79981231 39.2385763,11.0383886 42,11.0383886 Z" id="Combined-Shape" stroke-width="2"></path>
            </g>
            <rect id="Rectangle-4" x="0" y="0" width="48" height="48"></rect>
        </g>
    </g>
</svg>