<?xml version="1.0" encoding="UTF-8"?>
<svg width="17px" height="17px" viewBox="0 0 17 17" version="1.1" xmlns="http://www.w3.org/2000/svg" xmlns:xlink="http://www.w3.org/1999/xlink">
    <!-- Generator: Sketch 52.5 (67469) - http://www.bohemiancoding.com/sketch -->
    <title>reorder down</title>
    <desc>Created with Sketch.</desc>
    <g id="reorder-down" stroke="none" stroke-width="1" fill="none" fill-rule="evenodd">
        <g id="ICONS-/-Sort-/-Re-order-Down" transform="translate(4.000000, 4.000000)">
            <path fill="currentColor" d="M4.97790657,6.90444057 L7.04883901,4.92556699 C7.23970782,4.74318284 7.54582542,4.74459544 7.73491079,4.9287329 C7.9216964,5.11063079 7.9216964,5.40554554 7.73491079,5.58744343 L7.73169048,5.59054989 L4.89448657,8.30163198 C4.79189751,8.39966067 4.65601426,8.44459236 4.52290397,8.43659348 C4.38986109,8.44457954 4.25404641,8.39980548 4.15130773,8.30206728 L1.26874738,5.55980636 C1.08020876,5.38044426 1.07667678,5.08620128 1.26085846,4.90259627 L1.26477987,4.89873258 C1.45398623,4.71447729 1.76019383,4.71273447 1.95159884,4.89482346 L4.01220876,6.85513977 L4.01220876,0.470213916 C4.01220876,0.210521941 4.22838758,0 4.49505767,0 C4.76172776,0 4.97790657,0.210521941 4.97790657,0.470213916 L4.97790657,6.90444057 Z" id="Path"></path>
        </g>
    </g>
</svg>
