<?xml version="1.0" encoding="UTF-8"?>
<svg width="17px" height="17px" viewBox="0 0 17 17" version="1.1" xmlns="http://www.w3.org/2000/svg" xmlns:xlink="http://www.w3.org/1999/xlink">
    <!-- Generator: Sketch 52.4 (67378) - http://www.bohemiancoding.com/sketch -->
    <title>notes</title>
    <desc>Created with Sketch.</desc>
    <g id="notes" stroke="none" stroke-width="1" fill="none" fill-rule="evenodd">
        <path d="M10.3571429,10.4375 L10.3571429,9.5 L14.0714286,9.5 L14.0714286,3.40625 C14.0714286,3.14736652 13.8635608,2.9375 13.6071429,2.9375 L3.39285714,2.9375 C3.13643922,2.9375 2.92857143,3.14736652 2.92857143,3.40625 L2.92857143,12.78125 C2.92857143,13.0401335 3.13643922,13.25 3.39285714,13.25 L10.3571429,13.25 L10.3571429,11.375 L5.25,11.375 C4.99358208,11.375 4.78571429,11.1651335 4.78571429,10.90625 C4.78571429,10.6473665 4.99358208,10.4375 5.25,10.4375 L10.3571429,10.4375 Z M14.9913227,10.4375 L14.9999218,10.4461817 L11.2956294,14.1860923 L11.2857143,14.1760818 L11.2857143,14.1875 L2.92857143,14.1875 C2.41573559,14.1875 2,13.767767 2,13.25 L2,2.9375 C2,2.41973305 2.41573559,2 2.92857143,2 L14.0714286,2 C14.5842644,2 15,2.41973305 15,2.9375 L15,10.4375 L14.9913227,10.4375 Z M11.2857143,12.8702775 L13.6953225,10.4375 L11.2857143,10.4375 L11.2857143,12.8702775 Z M5.25,4.8125 L11.75,4.8125 C12.0064179,4.8125 12.2142857,5.02236652 12.2142857,5.28125 C12.2142857,5.54013348 12.0064179,5.75 11.75,5.75 L5.25,5.75 C4.99358208,5.75 4.78571429,5.54013348 4.78571429,5.28125 C4.78571429,5.02236652 4.99358208,4.8125 5.25,4.8125 Z M5.25,7.625 L11.75,7.625 C12.0064179,7.625 12.2142857,7.83486652 12.2142857,8.09375 C12.2142857,8.35263348 12.0064179,8.5625 11.75,8.5625 L5.25,8.5625 C4.99358208,8.5625 4.78571429,8.35263348 4.78571429,8.09375 C4.78571429,7.83486652 4.99358208,7.625 5.25,7.625 Z" id="Shape" fill="currentColor"></path>
    </g>
</svg>
