<?xml version="1.0" encoding="UTF-8"?>
<svg width="17" height="17" viewBox="0 0 17 17" version="1.1" xmlns="http://www.w3.org/2000/svg" xmlns:xlink="http://www.w3.org/1999/xlink">
    <path fill="currentColor" fill-rule="nonzero" d="M8.34961169,10.774561 L12.0312693,7.25656355 C12.3705917,6.93232506 12.9148007,6.93483633 13.2509525,7.26219182 C13.5830158,7.58556585 13.5830158,8.10985874 13.2509525,8.43323276 L13.2452275,8.43875536 L8.20130946,13.2584569 C8.01892891,13.4327301 7.77735868,13.5126086 7.54071817,13.4983884 C7.3041975,13.5125858 7.06274917,13.4329875 6.88010263,13.2592307 L1.75555089,8.3841002 C1.42037113,8.06523425 1.41409205,7.54213562 1.74152616,7.2157267 L1.74849754,7.20885792 C2.0848644,6.88129297 2.62923347,6.87819462 2.96950906,7.20190838 L6.63281558,10.6869151 L6.63281558,-0.66406415 C6.63281558,-1.12573877 7.01713348,-1.5 7.49121363,-1.5 C7.96529379,-1.5 8.34961169,-1.12573877 8.34961169,-0.66406415 L8.34961169,10.774561 Z" id="Path-Copy" transform="translate(7.500000, 6.000000) rotate(90.000000) translate(-7.500000, -6.000000) "/>
</svg>
