<svg xmlns="http://www.w3.org/2000/svg" width="17" height="17" viewBox="0 0 17 17">
    <path fill="currentColor" fill-rule="nonzero" d="M3.29 13a.287.287 0 0 1-.28-.195.255.255 0 0 1 .13-.297c.98-.537 1.386-1.318 1.53-1.683C3.606 10.08 3 9.049 3 7.97c0-.545.15-1.073.445-1.57a4.194 4.194 0 0 1 1.193-1.26C5.672 4.405 7.044 4 8.5 4s2.828.405 3.862 1.141c.51.363.912.787 1.193 1.26.296.497.445 1.024.445 1.57 0 .545-.15 1.072-.445 1.569a4.194 4.194 0 0 1-1.193 1.26c-1.034.736-2.406 1.141-3.862 1.141a7.442 7.442 0 0 1-1.746-.203c-.248.15-.713.42-1.267.672-.862.391-1.6.59-2.197.59zM8.5 4.53c-2.713 0-4.921 1.543-4.921 3.44 0 .961.582 1.886 1.596 2.537.1.064.144.178.113.286a3.57 3.57 0 0 1-.915 1.475c.754-.24 1.566-.66 2.165-1.037a.311.311 0 0 1 .244-.036 6.8 6.8 0 0 0 1.718.216c2.714 0 4.921-1.543 4.921-3.44 0-1.898-2.207-3.441-4.92-3.441z"/>
</svg>
