<svg xmlns="http://www.w3.org/2000/svg" width="17" height="17" viewBox="0 0 17 17">
    <path fill="currentColor" d="M3.395 11.105a.29.29 0 0 0 .494.205l5.006-5.006L13.9 11.31a.29.29 0 0 0 .409-.41L9.1 5.69a.29.29 0 0 0-.41 0L3.48 10.9a.288.288 0 0 0-.085.206z"/>
</svg>
